C:\Users\MarcelaCepeda\eclipse-workspace\Yapito\src\test\java\com\yapo\config\DriverFactory.java
C:\Users\MarcelaCepeda\eclipse-workspace\Yapito\src\test\java\com\yapo\page\FormularioUsuario.java
C:\Users\MarcelaCepeda\eclipse-workspace\Yapito\src\test\java\com\yapo\util\HtmlReport.java
C:\Users\MarcelaCepeda\eclipse-workspace\Yapito\src\test\java\com\yapo\dataprovider\FileDataProvider.java
C:\Users\MarcelaCepeda\eclipse-workspace\Yapito\src\test\java\com\yapo\util\CaptureScreenShot.java
C:\Users\MarcelaCepeda\eclipse-workspace\Yapito\src\test\java\com\yapo\entities\DatosCrearUser.java
C:\Users\MarcelaCepeda\eclipse-workspace\Yapito\src\test\java\com\yapo\page\Formulario.java
C:\Users\MarcelaCepeda\eclipse-workspace\Yapito\src\test\java\com\yapo\entities\DatosPublicar.java
C:\Users\MarcelaCepeda\eclipse-workspace\Yapito\src\test\java\com\yapo\entities\DatosBusqueda.java
C:\Users\MarcelaCepeda\eclipse-workspace\Yapito\src\test\java\com\yapo\test\CrearCuenta.java
C:\Users\MarcelaCepeda\eclipse-workspace\Yapito\src\test\java\com\yapo\dataprovider\DataProviderYapito.java
C:\Users\MarcelaCepeda\eclipse-workspace\Yapito\src\test\java\com\yapo\test\BusquedaCasa.java
C:\Users\MarcelaCepeda\eclipse-workspace\Yapito\src\test\java\com\yapo\page\FormularioPublicar.java
C:\Users\MarcelaCepeda\eclipse-workspace\Yapito\src\test\java\com\yapo\config\BaseConfig.java
C:\Users\MarcelaCepeda\eclipse-workspace\Yapito\src\test\java\com\yapo\test\PublicarVenta.java
C:\Users\MarcelaCepeda\eclipse-workspace\Yapito\src\test\java\com\yapo\util\WaitWebDriver.java
